<svg width="36" height="36" viewBox="0 0 36 36" fill="none" xmlns="http://www.w3.org/2000/svg">
<g id="icon">
<path id="Vector" d="M28.5 19.5H19.5V28.5H16.5V19.5H7.5V16.5H16.5V7.5H19.5V16.5H28.5V19.5Z" fill="black"/>
</g>
</svg>
