<svg width="42" height="42" viewBox="0 0 42 42" fill="none" xmlns="http://www.w3.org/2000/svg">
<g id="view">
<path id="Vector" d="M9 12V30H32.1429V12H9ZM14.1429 14.5714V17.1429H11.5714V14.5714H14.1429ZM11.5714 22.2857V19.7143H14.1429V22.2857H11.5714ZM11.5714 24.8571H14.1429V27.4286H11.5714V24.8571ZM29.5714 27.4286H16.7143V24.8571H29.5714V27.4286ZM29.5714 22.2857H16.7143V19.7143H29.5714V22.2857ZM29.5714 17.1429H16.7143V14.5714H29.5714V17.1429Z" fill="#156075"/>
</g>
</svg>
